# MagicaVoxel @ Ephtracy

# group
g katana

# material
mtllib katana.mtl
usemtl palette

# normals
vn -1 0 0
vn 1 0 0
vn 0 0 1
vn 0 0 -1
vn 0 -1 0
vn 0 1 0

# texcoords
vt 0.537109 0.5
vt 0.865234 0.5
vt 0.876953 0.5
vt 0.994141 0.5

# verts
v -2 22 2
v -2 22 -2
v -2 23 2
v -2 23 -2
v -1 0 1
v -1 0 -0
v -1 2 -0
v -1 2 -1
v -1 22 1
v -1 22 -1
v -1 23 1
v -1 23 -1
v -1 25 1
v -1 25 -1
v -1 26 1
v -1 26 -1
v -1 27 1
v -1 27 -1
v -1 28 1
v -1 28 -1
v -1 29 1
v -1 29 -1
v -1 30 1
v -1 30 -1
v -1 31 1
v -1 31 -1
v -1 32 1
v -1 32 -1
v 1 0 1
v 1 0 -0
v 1 2 -0
v 1 2 -1
v 1 22 1
v 1 22 -1
v 1 23 1
v 1 23 -1
v 1 25 1
v 1 25 -1
v 1 26 1
v 1 26 -1
v 1 27 1
v 1 27 -1
v 1 28 1
v 1 28 -1
v 1 29 1
v 1 29 -1
v 1 30 1
v 1 30 -1
v 1 31 1
v 1 31 -1
v 1 32 1
v 1 32 -1
v 2 22 2
v 2 22 -2
v 2 23 2
v 2 23 -2
v -2 22 2
v -2 23 2
v 2 22 2
v 2 23 2
v -1 0 1
v -1 22 1
v -1 23 1
v -1 25 1
v -1 26 1
v -1 27 1
v -1 28 1
v -1 29 1
v -1 30 1
v -1 31 1
v -1 32 1
v 1 0 1
v 1 22 1
v 1 23 1
v 1 25 1
v 1 26 1
v 1 27 1
v 1 28 1
v 1 29 1
v 1 30 1
v 1 31 1
v 1 32 1
v -1 0 -0
v -1 2 -0
v 1 0 -0
v 1 2 -0
v -1 2 -1
v -1 22 -1
v -1 23 -1
v -1 25 -1
v -1 26 -1
v -1 27 -1
v -1 28 -1
v -1 29 -1
v -1 30 -1
v -1 31 -1
v -1 32 -1
v 1 2 -1
v 1 22 -1
v 1 23 -1
v 1 25 -1
v 1 26 -1
v 1 27 -1
v 1 28 -1
v 1 29 -1
v 1 30 -1
v 1 31 -1
v 1 32 -1
v -2 22 -2
v -2 23 -2
v 2 22 -2
v 2 23 -2
v -1 0 1
v 1 0 1
v -1 0 -0
v 1 0 -0
v -1 2 -0
v 1 2 -0
v -1 2 -1
v 1 2 -1
v -2 22 2
v 2 22 2
v -1 22 1
v 1 22 1
v -1 22 -1
v 1 22 -1
v -2 22 -2
v 2 22 -2
v -2 23 2
v 2 23 2
v -1 23 1
v 1 23 1
v -1 23 -1
v 1 23 -1
v -2 23 -2
v 2 23 -2
v -1 32 1
v 1 32 1
v -1 32 -1
v 1 32 -1

# faces
f 3/4/1 2/4/1 1/4/1
f 4/4/1 2/4/1 3/4/1
f 7/2/1 6/2/1 5/2/1
f 9/2/1 7/2/1 5/2/1
f 9/2/1 8/2/1 7/2/1
f 10/2/1 8/2/1 9/2/1
f 13/1/1 12/1/1 11/1/1
f 14/1/1 12/1/1 13/1/1
f 15/3/1 14/3/1 13/3/1
f 16/3/1 14/3/1 15/3/1
f 17/1/1 16/1/1 15/1/1
f 18/1/1 16/1/1 17/1/1
f 19/3/1 18/3/1 17/3/1
f 20/3/1 18/3/1 19/3/1
f 21/1/1 20/1/1 19/1/1
f 22/1/1 20/1/1 21/1/1
f 23/3/1 22/3/1 21/3/1
f 24/3/1 22/3/1 23/3/1
f 25/1/1 24/1/1 23/1/1
f 26/1/1 24/1/1 25/1/1
f 27/3/1 26/3/1 25/3/1
f 28/3/1 26/3/1 27/3/1
f 29/2/2 30/2/2 31/2/2
f 29/2/2 31/2/2 33/2/2
f 31/2/2 32/2/2 33/2/2
f 33/2/2 32/2/2 34/2/2
f 35/1/2 36/1/2 37/1/2
f 37/1/2 36/1/2 38/1/2
f 37/3/2 38/3/2 39/3/2
f 39/3/2 38/3/2 40/3/2
f 39/1/2 40/1/2 41/1/2
f 41/1/2 40/1/2 42/1/2
f 41/3/2 42/3/2 43/3/2
f 43/3/2 42/3/2 44/3/2
f 43/1/2 44/1/2 45/1/2
f 45/1/2 44/1/2 46/1/2
f 45/3/2 46/3/2 47/3/2
f 47/3/2 46/3/2 48/3/2
f 47/1/2 48/1/2 49/1/2
f 49/1/2 48/1/2 50/1/2
f 49/3/2 50/3/2 51/3/2
f 51/3/2 50/3/2 52/3/2
f 53/4/2 54/4/2 55/4/2
f 55/4/2 54/4/2 56/4/2
f 59/4/3 58/4/3 57/4/3
f 60/4/3 58/4/3 59/4/3
f 72/2/3 62/2/3 61/2/3
f 73/2/3 62/2/3 72/2/3
f 74/1/3 64/1/3 63/1/3
f 75/3/3 65/3/3 64/3/3
f 75/1/3 64/1/3 74/1/3
f 76/1/3 66/1/3 65/1/3
f 76/3/3 65/3/3 75/3/3
f 77/3/3 67/3/3 66/3/3
f 77/1/3 66/1/3 76/1/3
f 78/1/3 68/1/3 67/1/3
f 78/3/3 67/3/3 77/3/3
f 79/3/3 69/3/3 68/3/3
f 79/1/3 68/1/3 78/1/3
f 80/1/3 70/1/3 69/1/3
f 80/3/3 69/3/3 79/3/3
f 81/3/3 71/3/3 70/3/3
f 81/1/3 70/1/3 80/1/3
f 82/3/3 71/3/3 81/3/3
f 83/2/4 84/2/4 85/2/4
f 85/2/4 84/2/4 86/2/4
f 87/2/4 88/2/4 98/2/4
f 98/2/4 88/2/4 99/2/4
f 89/1/4 90/1/4 100/1/4
f 90/3/4 91/3/4 101/3/4
f 100/1/4 90/1/4 101/1/4
f 91/1/4 92/1/4 102/1/4
f 101/3/4 91/3/4 102/3/4
f 92/3/4 93/3/4 103/3/4
f 102/1/4 92/1/4 103/1/4
f 93/1/4 94/1/4 104/1/4
f 103/3/4 93/3/4 104/3/4
f 94/3/4 95/3/4 105/3/4
f 104/1/4 94/1/4 105/1/4
f 95/1/4 96/1/4 106/1/4
f 105/3/4 95/3/4 106/3/4
f 96/3/4 97/3/4 107/3/4
f 106/1/4 96/1/4 107/1/4
f 107/3/4 97/3/4 108/3/4
f 109/4/4 110/4/4 111/4/4
f 111/4/4 110/4/4 112/4/4
f 115/2/5 114/2/5 113/2/5
f 116/2/5 114/2/5 115/2/5
f 119/2/5 118/2/5 117/2/5
f 120/2/5 118/2/5 119/2/5
f 123/4/5 122/4/5 121/4/5
f 124/4/5 122/4/5 123/4/5
f 125/4/5 123/4/5 121/4/5
f 126/4/5 122/4/5 124/4/5
f 127/4/5 125/4/5 121/4/5
f 127/4/5 126/4/5 125/4/5
f 128/4/5 122/4/5 126/4/5
f 128/4/5 126/4/5 127/4/5
f 129/4/6 130/4/6 131/4/6
f 131/4/6 130/4/6 132/4/6
f 129/4/6 131/4/6 133/4/6
f 132/4/6 130/4/6 134/4/6
f 129/4/6 133/4/6 135/4/6
f 133/4/6 134/4/6 135/4/6
f 134/4/6 130/4/6 136/4/6
f 135/4/6 134/4/6 136/4/6
f 137/3/6 138/3/6 139/3/6
f 139/3/6 138/3/6 140/3/6
