# MagicaVoxel @ Ephtracy

# group
g sakura

# material
mtllib sakura.mtl
usemtl palette

# normals
vn -1 0 0
vn 1 0 0
vn 0 0 1
vn 0 0 -1
vn 0 -1 0
vn 0 1 0

# texcoords
vt 0.0996094 0.5
vt 0.533203 0.5
vt 0.537109 0.5
vt 0.896484 0.5
vt 0.986328 0.5

# verts
v -20 0 20
v -20 0 -20
v -20 1 20
v -20 1 -20
v -16 1 17
v -16 1 -16
v -16 3 17
v -16 3 -16
v -8 23 9
v -8 23 8
v -8 23 7
v -8 24 9
v -8 24 8
v -8 25 8
v -8 25 7
v -7 22 7
v -7 22 6
v -7 23 7
v -7 24 7
v -7 24 6
v -6 21 7
v -6 21 6
v -6 21 5
v -6 22 7
v -6 22 6
v -6 23 6
v -6 23 5
v -5 20 5
v -5 20 4
v -5 21 5
v -5 22 5
v -5 22 4
v -4 19 5
v -4 19 4
v -4 19 2
v -4 20 5
v -4 20 4
v -4 20 3
v -4 20 2
v -4 21 4
v -4 21 3
v -3 18 3
v -3 18 1
v -3 19 3
v -3 19 2
v -3 19 1
v -2 2 2
v -2 2 -2
v -2 18 2
v -2 18 1
v -2 19 2
v -2 19 1
v -2 20 2
v -2 24 2
v -2 24 1
v -2 25 2
v -2 25 1
v -2 30 2
v -2 30 -2
v -1 24 2
v -1 24 1
v -1 25 2
v -1 25 1
v 1 16 2
v 1 16 1
v 1 17 2
v 1 17 1
v 1 19 2
v 1 19 1
v 1 20 2
v 1 20 1
v 2 22 3
v 2 22 2
v 2 24 3
v 2 24 2
v 3 23 4
v 3 23 3
v 3 24 3
v 3 25 4
v 3 25 3
v 4 24 5
v 4 24 4
v 4 25 4
v 4 26 5
v 4 26 4
v 5 25 6
v 5 25 5
v 5 26 5
v 5 27 6
v 5 27 5
v 16 2 10
v 16 2 -15
v 16 3 10
v 16 3 -15
v -15 2 16
v -15 2 -15
v -15 3 16
v -15 3 -15
v -7 23 9
v -7 23 8
v -7 23 7
v -7 24 9
v -7 24 8
v -7 24 7
v -7 25 8
v -7 25 7
v -6 22 7
v -6 22 6
v -6 23 6
v -6 24 7
v -6 24 6
v -5 21 7
v -5 21 6
v -5 21 5
v -5 22 7
v -5 22 6
v -5 22 5
v -5 23 6
v -5 23 5
v -4 20 5
v -4 20 4
v -4 21 4
v -4 22 5
v -4 22 4
v -3 19 5
v -3 19 4
v -3 19 3
v -3 20 5
v -3 20 4
v -3 20 3
v -3 21 4
v -3 21 3
v -2 18 3
v -2 18 2
v -2 20 3
v -2 20 2
v 0 16 2
v 0 16 1
v 0 17 2
v 0 17 1
v 0 19 2
v 0 19 1
v 0 20 2
v 0 20 1
v 1 4 1
v 1 4 -0
v 1 5 1
v 1 5 -0
v 1 9 -0
v 1 9 -1
v 1 10 -0
v 1 10 -1
v 1 11 2
v 1 11 1
v 1 13 2
v 1 13 1
v 1 17 -0
v 1 17 -1
v 1 18 -0
v 1 18 -1
v 1 23 -1
v 1 23 -2
v 1 24 -1
v 1 24 -2
v 2 2 2
v 2 2 -2
v 2 4 1
v 2 4 -0
v 2 5 1
v 2 5 -0
v 2 9 -0
v 2 9 -1
v 2 10 -0
v 2 10 -1
v 2 11 2
v 2 11 1
v 2 13 2
v 2 13 1
v 2 17 -0
v 2 17 -1
v 2 18 -0
v 2 18 -1
v 2 22 2
v 2 23 -1
v 2 23 -2
v 2 24 2
v 2 24 -1
v 2 24 -2
v 2 30 2
v 2 30 -2
v 3 22 3
v 3 22 2
v 3 23 3
v 3 24 3
v 3 24 2
v 4 23 4
v 4 23 3
v 4 24 4
v 4 25 4
v 4 25 3
v 5 24 5
v 5 24 4
v 5 25 5
v 5 26 5
v 5 26 4
v 6 25 6
v 6 25 5
v 6 27 6
v 6 27 5
v 10 2 17
v 10 2 16
v 10 3 17
v 10 3 16
v 17 1 17
v 17 1 -16
v 17 2 17
v 17 2 10
v 17 3 10
v 17 3 -16
v 20 0 20
v 20 0 -20
v 20 1 20
v 20 1 -20
v -20 0 20
v -20 1 20
v 20 0 20
v 20 1 20
v -16 1 17
v -16 3 17
v 10 2 17
v 10 3 17
v 17 1 17
v 17 2 17
v 16 2 10
v 16 3 10
v 17 2 10
v 17 3 10
v -8 23 9
v -8 24 9
v -7 23 9
v -7 24 9
v -8 24 8
v -8 25 8
v -7 24 8
v -7 25 8
v -7 22 7
v -7 23 7
v -7 24 7
v -6 21 7
v -6 22 7
v -6 24 7
v -5 21 7
v -5 22 7
v -6 22 6
v -6 23 6
v -5 22 6
v -5 23 6
v 5 25 6
v 5 27 6
v 6 25 6
v 6 27 6
v -5 20 5
v -5 21 5
v -5 22 5
v -4 19 5
v -4 20 5
v -4 22 5
v -3 19 5
v -3 20 5
v 4 24 5
v 4 26 5
v 5 24 5
v 5 25 5
v 5 26 5
v -4 20 4
v -4 21 4
v -3 20 4
v -3 21 4
v 3 23 4
v 3 25 4
v 4 23 4
v 4 24 4
v 4 25 4
v -3 18 3
v -3 19 3
v -3 20 3
v -2 18 3
v -2 20 3
v 2 22 3
v 2 24 3
v 3 22 3
v 3 23 3
v 3 24 3
v -2 2 2
v -2 18 2
v -2 20 2
v -2 24 2
v -2 25 2
v -2 30 2
v -1 24 2
v -1 25 2
v 0 16 2
v 0 17 2
v 0 19 2
v 0 20 2
v 1 11 2
v 1 13 2
v 1 16 2
v 1 17 2
v 1 19 2
v 1 20 2
v 2 2 2
v 2 11 2
v 2 13 2
v 2 22 2
v 2 24 2
v 2 30 2
v -2 24 1
v -2 25 1
v -1 24 1
v -1 25 1
v 0 16 1
v 0 17 1
v 0 19 1
v 0 20 1
v 1 11 1
v 1 13 1
v 1 16 1
v 1 17 1
v 1 19 1
v 1 20 1
v 2 11 1
v 2 13 1
v 1 4 -0
v 1 5 -0
v 2 4 -0
v 2 5 -0
v 1 9 -1
v 1 10 -1
v 1 17 -1
v 1 18 -1
v 2 9 -1
v 2 10 -1
v 2 17 -1
v 2 18 -1
v -15 2 -15
v -15 3 -15
v 16 2 -15
v 16 3 -15
v -15 2 16
v -15 3 16
v 10 2 16
v 10 3 16
v -8 23 7
v -8 25 7
v -7 23 7
v -7 24 7
v -7 25 7
v -7 22 6
v -7 24 6
v -6 22 6
v -6 23 6
v -6 24 6
v -6 21 5
v -6 23 5
v -5 21 5
v -5 22 5
v -5 23 5
v 5 25 5
v 5 26 5
v 5 27 5
v 6 25 5
v 6 27 5
v -5 20 4
v -5 22 4
v -4 20 4
v -4 21 4
v -4 22 4
v 4 24 4
v 4 25 4
v 4 26 4
v 5 24 4
v 5 26 4
v -4 20 3
v -4 21 3
v -3 20 3
v -3 21 3
v 3 23 3
v 3 24 3
v 3 25 3
v 4 23 3
v 4 25 3
v -4 19 2
v -4 20 2
v -3 19 2
v -2 19 2
v -2 20 2
v 2 22 2
v 2 24 2
v 3 22 2
v 3 24 2
v -3 18 1
v -3 19 1
v -2 18 1
v -2 19 1
v 1 4 1
v 1 5 1
v 2 4 1
v 2 5 1
v 1 9 -0
v 1 10 -0
v 1 17 -0
v 1 18 -0
v 2 9 -0
v 2 10 -0
v 2 17 -0
v 2 18 -0
v 1 23 -1
v 1 24 -1
v 2 23 -1
v 2 24 -1
v -2 2 -2
v -2 30 -2
v 1 23 -2
v 1 24 -2
v 2 2 -2
v 2 23 -2
v 2 24 -2
v 2 30 -2
v -16 1 -16
v -16 3 -16
v 17 1 -16
v 17 3 -16
v -20 0 -20
v -20 1 -20
v 20 0 -20
v 20 1 -20
v -20 0 20
v 20 0 20
v -20 0 -20
v 20 0 -20
v 1 5 1
v 2 5 1
v 1 5 -0
v 2 5 -0
v 1 10 -0
v 2 10 -0
v 1 10 -1
v 2 10 -1
v 1 13 2
v 2 13 2
v 1 13 1
v 2 13 1
v 0 17 2
v 1 17 2
v 0 17 1
v 1 17 1
v -3 18 3
v -2 18 3
v -2 18 2
v -3 18 1
v -2 18 1
v 1 18 -0
v 2 18 -0
v 1 18 -1
v 2 18 -1
v -4 19 5
v -3 19 5
v -4 19 4
v -3 19 4
v -3 19 3
v -4 19 2
v -3 19 2
v -5 20 5
v -4 20 5
v -5 20 4
v -4 20 4
v 0 20 2
v 1 20 2
v 0 20 1
v 1 20 1
v -6 21 7
v -5 21 7
v -6 21 6
v -5 21 6
v -6 21 5
v -5 21 5
v -7 22 7
v -6 22 7
v -7 22 6
v -6 22 6
v 2 22 3
v 3 22 3
v 2 22 2
v 3 22 2
v -8 23 9
v -7 23 9
v -8 23 8
v -7 23 8
v -8 23 7
v -7 23 7
v 3 23 4
v 4 23 4
v 3 23 3
v 4 23 3
v 4 24 5
v 5 24 5
v 4 24 4
v 5 24 4
v 1 24 -1
v 2 24 -1
v 1 24 -2
v 2 24 -2
v 5 25 6
v 6 25 6
v 5 25 5
v 6 25 5
v -2 25 2
v -1 25 2
v -2 25 1
v -1 25 1
v -20 1 20
v 20 1 20
v -16 1 17
v 17 1 17
v -16 1 -16
v 17 1 -16
v -20 1 -20
v 20 1 -20
v 10 2 17
v 17 2 17
v -15 2 16
v 10 2 16
v 16 2 16
v 16 2 10
v 17 2 10
v -2 2 2
v 2 2 2
v -2 2 -2
v 2 2 -2
v -15 2 -15
v 16 2 -15
v -16 3 17
v 10 3 17
v -15 3 16
v 10 3 16
v 16 3 10
v 17 3 10
v -15 3 -15
v 16 3 -15
v -16 3 -16
v 17 3 -16
v 1 4 1
v 2 4 1
v 1 4 -0
v 2 4 -0
v 1 9 -0
v 2 9 -0
v 1 9 -1
v 2 9 -1
v 1 11 2
v 2 11 2
v 1 11 1
v 2 11 1
v 0 16 2
v 1 16 2
v 0 16 1
v 1 16 1
v 1 17 -0
v 2 17 -0
v 1 17 -1
v 2 17 -1
v -3 19 2
v -2 19 2
v 0 19 2
v 1 19 2
v -3 19 1
v -2 19 1
v 0 19 1
v 1 19 1
v -4 20 5
v -3 20 5
v -4 20 4
v -3 20 4
v -4 20 3
v -3 20 3
v -2 20 3
v -4 20 2
v -2 20 2
v -4 21 4
v -3 21 4
v -4 21 3
v -3 21 3
v -6 22 7
v -5 22 7
v -6 22 6
v -5 22 6
v -5 22 5
v -4 22 5
v -5 22 4
v -4 22 4
v -6 23 6
v -5 23 6
v -6 23 5
v -5 23 5
v 1 23 -1
v 2 23 -1
v 1 23 -2
v 2 23 -2
v -8 24 9
v -7 24 9
v -8 24 8
v -7 24 8
v -7 24 7
v -6 24 7
v -7 24 6
v -6 24 6
v 2 24 3
v 3 24 3
v -2 24 2
v -1 24 2
v 2 24 2
v 3 24 2
v -2 24 1
v -1 24 1
v -8 25 8
v -7 25 8
v -8 25 7
v -7 25 7
v 3 25 4
v 4 25 4
v 3 25 3
v 4 25 3
v 4 26 5
v 5 26 5
v 4 26 4
v 5 26 4
v 5 27 6
v 6 27 6
v 5 27 5
v 6 27 5
v -2 30 2
v 2 30 2
v -2 30 -2
v 2 30 -2

# faces
f 3/4/1 2/4/1 1/4/1
f 4/4/1 2/4/1 3/4/1
f 7/5/1 6/5/1 5/5/1
f 8/5/1 6/5/1 7/5/1
f 12/1/1 10/1/1 9/1/1
f 13/2/1 11/2/1 10/2/1
f 13/1/1 10/1/1 12/1/1
f 14/2/1 11/2/1 13/2/1
f 15/2/1 11/2/1 14/2/1
f 18/2/1 17/2/1 16/2/1
f 19/2/1 17/2/1 18/2/1
f 20/2/1 17/2/1 19/2/1
f 24/1/1 22/1/1 21/1/1
f 25/2/1 23/2/1 22/2/1
f 25/1/1 22/1/1 24/1/1
f 26/2/1 23/2/1 25/2/1
f 27/2/1 23/2/1 26/2/1
f 30/2/1 29/2/1 28/2/1
f 31/2/1 29/2/1 30/2/1
f 32/2/1 29/2/1 31/2/1
f 36/1/1 34/1/1 33/1/1
f 37/2/1 35/2/1 34/2/1
f 37/1/1 34/1/1 36/1/1
f 38/2/1 35/2/1 37/2/1
f 39/2/1 35/2/1 38/2/1
f 40/2/1 38/2/1 37/2/1
f 41/2/1 38/2/1 40/2/1
f 44/2/1 43/2/1 42/2/1
f 45/2/1 43/2/1 44/2/1
f 46/2/1 43/2/1 45/2/1
f 49/2/1 48/2/1 47/2/1
f 50/2/1 48/2/1 49/2/1
f 52/2/1 48/2/1 50/2/1
f 53/2/1 52/2/1 51/2/1
f 54/2/1 52/2/1 53/2/1
f 55/2/1 48/2/1 52/2/1
f 55/2/1 52/2/1 54/2/1
f 57/2/1 48/2/1 55/2/1
f 58/2/1 57/2/1 56/2/1
f 59/2/1 48/2/1 57/2/1
f 59/2/1 57/2/1 58/2/1
f 62/2/1 61/2/1 60/2/1
f 63/2/1 61/2/1 62/2/1
f 66/2/1 65/2/1 64/2/1
f 67/2/1 65/2/1 66/2/1
f 70/2/1 69/2/1 68/2/1
f 71/2/1 69/2/1 70/2/1
f 74/2/1 73/2/1 72/2/1
f 75/2/1 73/2/1 74/2/1
f 78/2/1 77/2/1 76/2/1
f 79/2/1 78/2/1 76/2/1
f 80/2/1 78/2/1 79/2/1
f 83/2/1 82/2/1 81/2/1
f 84/2/1 83/2/1 81/2/1
f 85/2/1 83/2/1 84/2/1
f 88/2/1 87/2/1 86/2/1
f 89/2/1 88/2/1 86/2/1
f 90/2/1 88/2/1 89/2/1
f 93/5/1 92/5/1 91/5/1
f 94/5/1 92/5/1 93/5/1
f 95/5/2 96/5/2 97/5/2
f 97/5/2 96/5/2 98/5/2
f 99/1/2 100/1/2 102/1/2
f 100/2/2 101/2/2 103/2/2
f 102/1/2 100/1/2 103/1/2
f 103/2/2 101/2/2 104/2/2
f 103/2/2 104/2/2 105/2/2
f 105/2/2 104/2/2 106/2/2
f 107/2/2 108/2/2 109/2/2
f 107/2/2 109/2/2 110/2/2
f 110/2/2 109/2/2 111/2/2
f 112/1/2 113/1/2 115/1/2
f 113/2/2 114/2/2 116/2/2
f 115/1/2 113/1/2 116/1/2
f 116/2/2 114/2/2 117/2/2
f 116/2/2 117/2/2 118/2/2
f 118/2/2 117/2/2 119/2/2
f 120/2/2 121/2/2 122/2/2
f 120/2/2 122/2/2 123/2/2
f 123/2/2 122/2/2 124/2/2
f 125/1/2 126/1/2 128/1/2
f 126/2/2 127/2/2 129/2/2
f 128/1/2 126/1/2 129/1/2
f 129/2/2 127/2/2 130/2/2
f 129/2/2 130/2/2 131/2/2
f 131/2/2 130/2/2 132/2/2
f 133/2/2 134/2/2 135/2/2
f 135/2/2 134/2/2 136/2/2
f 137/2/2 138/2/2 139/2/2
f 139/2/2 138/2/2 140/2/2
f 141/2/2 142/2/2 143/2/2
f 143/2/2 142/2/2 144/2/2
f 145/2/2 146/2/2 147/2/2
f 147/2/2 146/2/2 148/2/2
f 149/2/2 150/2/2 151/2/2
f 151/2/2 150/2/2 152/2/2
f 153/2/2 154/2/2 155/2/2
f 155/2/2 154/2/2 156/2/2
f 157/2/2 158/2/2 159/2/2
f 159/2/2 158/2/2 160/2/2
f 161/2/2 162/2/2 163/2/2
f 163/2/2 162/2/2 164/2/2
f 165/2/2 166/2/2 167/2/2
f 167/2/2 166/2/2 168/2/2
f 165/2/2 167/2/2 169/2/2
f 168/2/2 166/2/2 170/2/2
f 170/2/2 166/2/2 171/2/2
f 169/2/2 170/2/2 171/2/2
f 171/2/2 166/2/2 172/2/2
f 169/2/2 171/2/2 173/2/2
f 172/2/2 166/2/2 174/2/2
f 165/2/2 169/2/2 175/2/2
f 173/2/2 174/2/2 175/2/2
f 169/2/2 173/2/2 175/2/2
f 175/2/2 174/2/2 176/2/2
f 176/2/2 174/2/2 178/2/2
f 178/2/2 174/2/2 179/2/2
f 177/2/2 178/2/2 179/2/2
f 174/2/2 166/2/2 180/2/2
f 179/2/2 174/2/2 180/2/2
f 177/2/2 179/2/2 181/2/2
f 180/2/2 166/2/2 182/2/2
f 177/2/2 181/2/2 183/2/2
f 181/2/2 182/2/2 183/2/2
f 182/2/2 166/2/2 184/2/2
f 183/2/2 182/2/2 184/2/2
f 184/2/2 166/2/2 185/2/2
f 183/2/2 184/2/2 186/2/2
f 186/2/2 184/2/2 187/2/2
f 186/2/2 187/2/2 189/2/2
f 187/2/2 188/2/2 189/2/2
f 189/2/2 188/2/2 190/2/2
f 191/2/2 192/2/2 193/2/2
f 193/2/2 192/2/2 194/2/2
f 194/2/2 192/2/2 195/2/2
f 196/2/2 197/2/2 198/2/2
f 198/2/2 197/2/2 199/2/2
f 199/2/2 197/2/2 200/2/2
f 201/2/2 202/2/2 203/2/2
f 203/2/2 202/2/2 204/2/2
f 204/2/2 202/2/2 205/2/2
f 206/2/2 207/2/2 208/2/2
f 208/2/2 207/2/2 209/2/2
f 210/5/2 211/5/2 212/5/2
f 212/5/2 211/5/2 213/5/2
f 214/5/2 215/5/2 216/5/2
f 216/5/2 215/5/2 217/5/2
f 217/5/2 215/5/2 218/5/2
f 218/5/2 215/5/2 219/5/2
f 220/4/2 221/4/2 222/4/2
f 222/4/2 221/4/2 223/4/2
f 226/4/3 225/4/3 224/4/3
f 227/4/3 225/4/3 226/4/3
f 230/5/3 229/5/3 228/5/3
f 231/5/3 229/5/3 230/5/3
f 232/5/3 230/5/3 228/5/3
f 233/5/3 230/5/3 232/5/3
f 236/5/3 235/5/3 234/5/3
f 237/5/3 235/5/3 236/5/3
f 240/1/3 239/1/3 238/1/3
f 241/1/3 239/1/3 240/1/3
f 244/2/3 243/2/3 242/2/3
f 245/2/3 243/2/3 244/2/3
f 250/2/3 247/2/3 246/2/3
f 250/2/3 248/2/3 247/2/3
f 251/2/3 248/2/3 250/2/3
f 252/1/3 250/1/3 249/1/3
f 253/1/3 250/1/3 252/1/3
f 256/2/3 255/2/3 254/2/3
f 257/2/3 255/2/3 256/2/3
f 260/2/3 259/2/3 258/2/3
f 261/2/3 259/2/3 260/2/3
f 266/2/3 263/2/3 262/2/3
f 266/2/3 264/2/3 263/2/3
f 267/2/3 264/2/3 266/2/3
f 268/1/3 266/1/3 265/1/3
f 269/1/3 266/1/3 268/1/3
f 272/2/3 271/2/3 270/2/3
f 273/2/3 271/2/3 272/2/3
f 274/2/3 271/2/3 273/2/3
f 277/2/3 276/2/3 275/2/3
f 278/2/3 276/2/3 277/2/3
f 281/2/3 280/2/3 279/2/3
f 282/2/3 280/2/3 281/2/3
f 283/2/3 280/2/3 282/2/3
f 287/2/3 285/2/3 284/2/3
f 287/2/3 286/2/3 285/2/3
f 288/2/3 286/2/3 287/2/3
f 291/2/3 290/2/3 289/2/3
f 292/2/3 290/2/3 291/2/3
f 293/2/3 290/2/3 292/2/3
f 300/2/3 295/2/3 294/2/3
f 300/2/3 296/2/3 295/2/3
f 300/2/3 297/2/3 296/2/3
f 301/2/3 299/2/3 298/2/3
f 302/2/3 300/2/3 294/2/3
f 302/2/3 301/2/3 300/2/3
f 303/2/3 301/2/3 302/2/3
f 304/2/3 301/2/3 303/2/3
f 305/2/3 301/2/3 304/2/3
f 306/2/3 302/2/3 294/2/3
f 307/2/3 302/2/3 306/2/3
f 308/2/3 302/2/3 307/2/3
f 309/2/3 304/2/3 303/2/3
f 310/2/3 304/2/3 309/2/3
f 311/2/3 301/2/3 305/2/3
f 312/2/3 306/2/3 294/2/3
f 313/2/3 306/2/3 312/2/3
f 314/2/3 310/2/3 309/2/3
f 314/2/3 308/2/3 307/2/3
f 314/2/3 311/2/3 310/2/3
f 314/2/3 309/2/3 308/2/3
f 315/2/3 301/2/3 311/2/3
f 315/2/3 311/2/3 314/2/3
f 316/2/3 301/2/3 315/2/3
f 317/2/3 299/2/3 301/2/3
f 317/2/3 301/2/3 316/2/3
f 320/2/3 319/2/3 318/2/3
f 321/2/3 319/2/3 320/2/3
f 328/2/3 323/2/3 322/2/3
f 329/2/3 323/2/3 328/2/3
f 330/2/3 325/2/3 324/2/3
f 331/2/3 325/2/3 330/2/3
f 332/2/3 327/2/3 326/2/3
f 333/2/3 327/2/3 332/2/3
f 336/2/3 335/2/3 334/2/3
f 337/2/3 335/2/3 336/2/3
f 342/2/3 339/2/3 338/2/3
f 343/2/3 339/2/3 342/2/3
f 344/2/3 341/2/3 340/2/3
f 345/2/3 341/2/3 344/2/3
f 348/5/3 347/5/3 346/5/3
f 349/5/3 347/5/3 348/5/3
f 350/5/4 351/5/4 352/5/4
f 352/5/4 351/5/4 353/5/4
f 354/2/4 355/2/4 356/2/4
f 356/2/4 355/2/4 357/2/4
f 357/2/4 355/2/4 358/2/4
f 359/2/4 360/2/4 361/2/4
f 361/2/4 360/2/4 362/2/4
f 362/2/4 360/2/4 363/2/4
f 364/2/4 365/2/4 366/2/4
f 366/2/4 365/2/4 367/2/4
f 367/2/4 365/2/4 368/2/4
f 369/2/4 370/2/4 372/2/4
f 370/2/4 371/2/4 372/2/4
f 372/2/4 371/2/4 373/2/4
f 374/2/4 375/2/4 376/2/4
f 376/2/4 375/2/4 377/2/4
f 377/2/4 375/2/4 378/2/4
f 379/2/4 380/2/4 382/2/4
f 380/2/4 381/2/4 382/2/4
f 382/2/4 381/2/4 383/2/4
f 384/2/4 385/2/4 386/2/4
f 386/2/4 385/2/4 387/2/4
f 388/2/4 389/2/4 391/2/4
f 389/2/4 390/2/4 391/2/4
f 391/2/4 390/2/4 392/2/4
f 393/2/4 394/2/4 395/2/4
f 395/2/4 394/2/4 396/2/4
f 396/2/4 394/2/4 397/2/4
f 398/2/4 399/2/4 400/2/4
f 400/2/4 399/2/4 401/2/4
f 402/2/4 403/2/4 404/2/4
f 404/2/4 403/2/4 405/2/4
f 406/2/4 407/2/4 408/2/4
f 408/2/4 407/2/4 409/2/4
f 410/2/4 411/2/4 414/2/4
f 414/2/4 411/2/4 415/2/4
f 412/2/4 413/2/4 416/2/4
f 416/2/4 413/2/4 417/2/4
f 418/2/4 419/2/4 420/2/4
f 420/2/4 419/2/4 421/2/4
f 422/2/4 423/2/4 424/2/4
f 424/2/4 423/2/4 425/2/4
f 422/2/4 424/2/4 426/2/4
f 426/2/4 424/2/4 427/2/4
f 425/2/4 423/2/4 428/2/4
f 428/2/4 423/2/4 429/2/4
f 430/5/4 431/5/4 432/5/4
f 432/5/4 431/5/4 433/5/4
f 434/4/4 435/4/4 436/4/4
f 436/4/4 435/4/4 437/4/4
f 440/4/5 439/4/5 438/4/5
f 441/4/5 439/4/5 440/4/5
f 444/2/5 443/2/5 442/2/5
f 445/2/5 443/2/5 444/2/5
f 448/2/5 447/2/5 446/2/5
f 449/2/5 447/2/5 448/2/5
f 452/2/5 451/2/5 450/2/5
f 453/2/5 451/2/5 452/2/5
f 456/2/5 455/2/5 454/2/5
f 457/2/5 455/2/5 456/2/5
f 460/2/5 459/2/5 458/2/5
f 461/2/5 460/2/5 458/2/5
f 462/2/5 460/2/5 461/2/5
f 465/2/5 464/2/5 463/2/5
f 466/2/5 464/2/5 465/2/5
f 469/1/5 468/1/5 467/1/5
f 470/1/5 468/1/5 469/1/5
f 471/2/5 470/2/5 469/2/5
f 472/2/5 471/2/5 469/2/5
f 473/2/5 471/2/5 472/2/5
f 476/2/5 475/2/5 474/2/5
f 477/2/5 475/2/5 476/2/5
f 480/2/5 479/2/5 478/2/5
f 481/2/5 479/2/5 480/2/5
f 484/1/5 483/1/5 482/1/5
f 485/1/5 483/1/5 484/1/5
f 486/2/5 485/2/5 484/2/5
f 487/2/5 485/2/5 486/2/5
f 490/2/5 489/2/5 488/2/5
f 491/2/5 489/2/5 490/2/5
f 494/2/5 493/2/5 492/2/5
f 495/2/5 493/2/5 494/2/5
f 498/1/5 497/1/5 496/1/5
f 499/1/5 497/1/5 498/1/5
f 500/2/5 499/2/5 498/2/5
f 501/2/5 499/2/5 500/2/5
f 504/2/5 503/2/5 502/2/5
f 505/2/5 503/2/5 504/2/5
f 508/2/5 507/2/5 506/2/5
f 509/2/5 507/2/5 508/2/5
f 512/2/5 511/2/5 510/2/5
f 513/2/5 511/2/5 512/2/5
f 516/2/5 515/2/5 514/2/5
f 517/2/5 515/2/5 516/2/5
f 520/2/5 519/2/5 518/2/5
f 521/2/5 519/2/5 520/2/5
f 522/4/6 523/4/6 524/4/6
f 524/4/6 523/4/6 525/4/6
f 522/4/6 524/4/6 526/4/6
f 525/4/6 523/4/6 527/4/6
f 522/4/6 526/4/6 528/4/6
f 526/4/6 527/4/6 528/4/6
f 527/4/6 523/4/6 529/4/6
f 528/4/6 527/4/6 529/4/6
f 530/5/6 531/5/6 533/5/6
f 533/5/6 531/5/6 534/5/6
f 532/3/6 533/3/6 535/3/6
f 534/5/6 531/5/6 535/5/6
f 533/3/6 534/3/6 535/3/6
f 535/5/6 531/5/6 536/5/6
f 532/3/6 535/3/6 537/3/6
f 537/3/6 535/3/6 538/3/6
f 532/3/6 537/3/6 539/3/6
f 538/3/6 535/3/6 540/3/6
f 532/3/6 539/3/6 541/3/6
f 539/3/6 540/3/6 541/3/6
f 540/3/6 535/3/6 542/3/6
f 541/3/6 540/3/6 542/3/6
f 543/5/6 544/5/6 545/5/6
f 545/5/6 544/5/6 546/5/6
f 543/5/6 545/5/6 549/5/6
f 547/5/6 548/5/6 550/5/6
f 543/5/6 549/5/6 551/5/6
f 549/5/6 550/5/6 551/5/6
f 550/5/6 548/5/6 552/5/6
f 551/5/6 550/5/6 552/5/6
f 553/2/6 554/2/6 555/2/6
f 555/2/6 554/2/6 556/2/6
f 557/2/6 558/2/6 559/2/6
f 559/2/6 558/2/6 560/2/6
f 561/2/6 562/2/6 563/2/6
f 563/2/6 562/2/6 564/2/6
f 565/2/6 566/2/6 567/2/6
f 567/2/6 566/2/6 568/2/6
f 569/2/6 570/2/6 571/2/6
f 571/2/6 570/2/6 572/2/6
f 573/2/6 574/2/6 577/2/6
f 577/2/6 574/2/6 578/2/6
f 575/2/6 576/2/6 579/2/6
f 579/2/6 576/2/6 580/2/6
f 581/1/6 582/1/6 583/1/6
f 583/1/6 582/1/6 584/1/6
f 585/2/6 586/2/6 588/2/6
f 586/2/6 587/2/6 588/2/6
f 588/2/6 587/2/6 589/2/6
f 590/2/6 591/2/6 592/2/6
f 592/2/6 591/2/6 593/2/6
f 594/1/6 595/1/6 596/1/6
f 596/1/6 595/1/6 597/1/6
f 598/2/6 599/2/6 600/2/6
f 600/2/6 599/2/6 601/2/6
f 602/2/6 603/2/6 604/2/6
f 604/2/6 603/2/6 605/2/6
f 606/2/6 607/2/6 608/2/6
f 608/2/6 607/2/6 609/2/6
f 610/1/6 611/1/6 612/1/6
f 612/1/6 611/1/6 613/1/6
f 614/2/6 615/2/6 616/2/6
f 616/2/6 615/2/6 617/2/6
f 618/2/6 619/2/6 622/2/6
f 622/2/6 619/2/6 623/2/6
f 620/2/6 621/2/6 624/2/6
f 624/2/6 621/2/6 625/2/6
f 626/2/6 627/2/6 628/2/6
f 628/2/6 627/2/6 629/2/6
f 630/2/6 631/2/6 632/2/6
f 632/2/6 631/2/6 633/2/6
f 634/2/6 635/2/6 636/2/6
f 636/2/6 635/2/6 637/2/6
f 638/2/6 639/2/6 640/2/6
f 640/2/6 639/2/6 641/2/6
f 642/2/6 643/2/6 644/2/6
f 644/2/6 643/2/6 645/2/6
