# MagicaVoxel @ Ephtracy

# group
g spacebuttongreen

# material
mtllib spacebuttongreen.mtl
usemtl palette

# normals
vn -1 0 0
vn 1 0 0
vn 0 0 1
vn 0 0 -1
vn 0 -1 0
vn 0 1 0

# texcoords
vt 0.880859 0.5
vt 0.970703 0.5
vt 0.974609 0.5
vt 0.986328 0.5
vt 0.994141 0.5

# verts
v -10 9 -5
v -10 9 -6
v -10 29 -5
v -10 29 -6
v -2 18 -4
v -2 18 -5
v -2 22 -4
v -2 22 -5
v 2 18 -4
v 2 18 -5
v 2 22 -4
v 2 22 -5
v 10 9 -5
v 10 9 -6
v 10 29 -5
v 10 29 -6
v -2 18 -4
v -2 22 -4
v 2 18 -4
v 2 22 -4
v -10 9 -5
v -10 29 -5
v -9 10 -5
v -9 28 -5
v -3 10 -5
v -3 17 -5
v -3 23 -5
v -3 28 -5
v -2 18 -5
v -2 22 -5
v 2 18 -5
v 2 22 -5
v 3 10 -5
v 3 17 -5
v 3 23 -5
v 3 28 -5
v 9 10 -5
v 9 28 -5
v 10 9 -5
v 10 29 -5
v -10 9 -6
v -10 29 -6
v -9 10 -6
v -9 28 -6
v -3 10 -6
v -3 17 -6
v -3 23 -6
v -3 28 -6
v 3 10 -6
v 3 17 -6
v 3 23 -6
v 3 28 -6
v 9 10 -6
v 9 28 -6
v 10 9 -6
v 10 29 -6
v -10 9 -5
v 10 9 -5
v -10 9 -6
v 10 9 -6
v -2 18 -4
v 2 18 -4
v -2 18 -5
v 2 18 -5
v -2 22 -4
v 2 22 -4
v -2 22 -5
v 2 22 -5
v -10 29 -5
v 10 29 -5
v -10 29 -6
v 10 29 -6

# faces
f 3/5/1 2/5/1 1/5/1
f 4/5/1 2/5/1 3/5/1
f 7/1/1 6/1/1 5/1/1
f 8/1/1 6/1/1 7/1/1
f 9/1/2 10/1/2 11/1/2
f 11/1/2 10/1/2 12/1/2
f 13/5/2 14/5/2 15/5/2
f 15/5/2 14/5/2 16/5/2
f 19/1/3 18/1/3 17/1/3
f 20/1/3 18/1/3 19/1/3
f 23/5/3 22/5/3 21/5/3
f 24/5/3 22/5/3 23/5/3
f 25/5/3 23/5/3 21/5/3
f 25/3/3 24/3/3 23/3/3
f 26/3/3 24/3/3 25/3/3
f 27/3/3 24/3/3 26/3/3
f 28/5/3 22/5/3 24/5/3
f 28/3/3 24/3/3 27/3/3
f 29/4/3 27/4/3 26/4/3
f 30/4/3 27/4/3 29/4/3
f 31/4/3 29/4/3 26/4/3
f 32/4/3 27/4/3 30/4/3
f 33/5/3 25/5/3 21/5/3
f 33/2/3 26/2/3 25/2/3
f 34/4/3 32/4/3 31/4/3
f 34/2/3 26/2/3 33/2/3
f 34/4/3 31/4/3 26/4/3
f 35/4/3 27/4/3 32/4/3
f 35/4/3 32/4/3 34/4/3
f 35/2/3 28/2/3 27/2/3
f 36/5/3 22/5/3 28/5/3
f 36/2/3 28/2/3 35/2/3
f 37/3/3 35/3/3 34/3/3
f 37/5/3 33/5/3 21/5/3
f 37/3/3 36/3/3 35/3/3
f 37/3/3 34/3/3 33/3/3
f 38/5/3 22/5/3 36/5/3
f 38/3/3 36/3/3 37/3/3
f 39/5/3 37/5/3 21/5/3
f 39/5/3 38/5/3 37/5/3
f 40/5/3 22/5/3 38/5/3
f 40/5/3 38/5/3 39/5/3
f 41/5/4 42/5/4 43/5/4
f 43/5/4 42/5/4 44/5/4
f 41/5/4 43/5/4 45/5/4
f 43/3/4 44/3/4 45/3/4
f 45/3/4 44/3/4 46/3/4
f 46/3/4 44/3/4 47/3/4
f 44/5/4 42/5/4 48/5/4
f 47/3/4 44/3/4 48/3/4
f 41/5/4 45/5/4 49/5/4
f 45/2/4 46/2/4 49/2/4
f 46/4/4 47/4/4 50/4/4
f 49/2/4 46/2/4 50/2/4
f 47/2/4 48/2/4 51/2/4
f 50/4/4 47/4/4 51/4/4
f 48/5/4 42/5/4 52/5/4
f 51/2/4 48/2/4 52/2/4
f 41/5/4 49/5/4 53/5/4
f 50/3/4 51/3/4 53/3/4
f 51/3/4 52/3/4 53/3/4
f 49/3/4 50/3/4 53/3/4
f 52/5/4 42/5/4 54/5/4
f 53/3/4 52/3/4 54/3/4
f 41/5/4 53/5/4 55/5/4
f 53/5/4 54/5/4 55/5/4
f 54/5/4 42/5/4 56/5/4
f 55/5/4 54/5/4 56/5/4
f 59/5/5 58/5/5 57/5/5
f 60/5/5 58/5/5 59/5/5
f 63/1/5 62/1/5 61/1/5
f 64/1/5 62/1/5 63/1/5
f 65/1/6 66/1/6 67/1/6
f 67/1/6 66/1/6 68/1/6
f 69/5/6 70/5/6 71/5/6
f 71/5/6 70/5/6 72/5/6
