%YAML 1.1
%TAG !u! tag:unity3d.com,2011:
--- !u!1045 &1
EditorBuildSettings:
  m_ObjectHideFlags: 0
  serializedVersion: 2
  m_Scenes:
  - enabled: 1
    path: Assets/Scenes/mm.unity
    guid: 7aa778e5b625d33449a161d9a3e091d6
  - enabled: 0
    path: Assets/Scenes/firstscene.unity
    guid: 9cb70cbdd8bf3c443b47d9496da9133a
  - enabled: 0
    path: Assets/Scenes/mainmenugame.unity
    guid: 99c9720ab356a0642a771bea13969a05
  - enabled: 1
    path: Assets/Scenes/maingame.unity
    guid: 3eadf764f46537e4c9a637ae344e7563
  m_configObjects: {}
