# MagicaVoxel @ Ephtracy

# group
g spacewallwithwidow

# material
mtllib spacewallwithwidow.mtl
usemtl palette

# normals
vn -1 0 0
vn 1 0 0
vn 0 0 1
vn 0 0 -1
vn 0 -1 0
vn 0 1 0

# texcoords
vt 0.970703 0.5
vt 0.986328 0.5

# verts
v -1 0 20
v -1 0 -20
v -1 9 20
v -1 9 -20
v -1 17 3
v -1 17 -4
v -1 18 4
v -1 18 3
v -1 18 -4
v -1 18 -5
v -1 19 5
v -1 19 4
v -1 19 -5
v -1 19 -6
v -1 29 5
v -1 29 4
v -1 29 -5
v -1 29 -6
v -1 30 4
v -1 30 3
v -1 30 -4
v -1 30 -5
v -1 31 3
v -1 31 -4
v -1 33 20
v -1 33 -20
v -1 40 20
v -1 40 -20
v 1 0 20
v 1 0 -20
v 1 9 20
v 1 9 -20
v 1 17 3
v 1 17 -4
v 1 18 4
v 1 18 3
v 1 18 -4
v 1 18 -5
v 1 19 5
v 1 19 4
v 1 19 -5
v 1 19 -6
v 1 29 5
v 1 29 4
v 1 29 -5
v 1 29 -6
v 1 30 4
v 1 30 3
v 1 30 -4
v 1 30 -5
v 1 31 3
v 1 31 -4
v 1 33 20
v 1 33 -20
v 1 40 20
v 1 40 -20
v -1 0 20
v -1 9 20
v -1 33 20
v -1 40 20
v 1 0 20
v 1 9 20
v 1 33 20
v 1 40 20
v -1 17 -4
v -1 18 -4
v -1 30 -4
v -1 31 -4
v 1 17 -4
v 1 18 -4
v 1 30 -4
v 1 31 -4
v -1 18 -5
v -1 19 -5
v -1 29 -5
v -1 30 -5
v 1 18 -5
v 1 19 -5
v 1 29 -5
v 1 30 -5
v -1 19 -6
v -1 29 -6
v 1 19 -6
v 1 29 -6
v -1 19 5
v -1 29 5
v 1 19 5
v 1 29 5
v -1 18 4
v -1 19 4
v -1 29 4
v -1 30 4
v 1 18 4
v 1 19 4
v 1 29 4
v 1 30 4
v -1 17 3
v -1 18 3
v -1 30 3
v -1 31 3
v 1 17 3
v 1 18 3
v 1 30 3
v 1 31 3
v -1 0 -20
v -1 9 -20
v -1 33 -20
v -1 40 -20
v 1 0 -20
v 1 9 -20
v 1 33 -20
v 1 40 -20
v -1 0 20
v 1 0 20
v -1 0 -20
v 1 0 -20
v -1 29 5
v 1 29 5
v -1 29 4
v 1 29 4
v -1 29 -5
v 1 29 -5
v -1 29 -6
v 1 29 -6
v -1 30 4
v 1 30 4
v -1 30 3
v 1 30 3
v -1 30 -4
v 1 30 -4
v -1 30 -5
v 1 30 -5
v -1 31 3
v 1 31 3
v -1 31 -4
v 1 31 -4
v -1 17 3
v 1 17 3
v -1 17 -4
v 1 17 -4
v -1 18 4
v 1 18 4
v -1 18 3
v 1 18 3
v -1 18 -4
v 1 18 -4
v -1 18 -5
v 1 18 -5
v -1 19 5
v 1 19 5
v -1 19 4
v 1 19 4
v -1 19 -5
v 1 19 -5
v -1 19 -6
v 1 19 -6
v -1 40 20
v 1 40 20
v -1 40 -20
v 1 40 -20

# faces
f 3/2/1 2/2/1 1/2/1
f 4/2/1 2/2/1 3/2/1
f 5/1/1 4/1/1 3/1/1
f 6/1/1 4/1/1 5/1/1
f 7/1/1 5/1/1 3/1/1
f 8/1/1 5/1/1 7/1/1
f 9/1/1 4/1/1 6/1/1
f 10/1/1 4/1/1 9/1/1
f 11/1/1 7/1/1 3/1/1
f 12/1/1 7/1/1 11/1/1
f 13/1/1 4/1/1 10/1/1
f 14/1/1 4/1/1 13/1/1
f 15/1/1 11/1/1 3/1/1
f 18/1/1 4/1/1 14/1/1
f 19/1/1 16/1/1 15/1/1
f 22/1/1 18/1/1 17/1/1
f 23/1/1 20/1/1 19/1/1
f 24/1/1 22/1/1 21/1/1
f 25/1/1 23/1/1 19/1/1
f 25/1/1 24/1/1 23/1/1
f 25/1/1 15/1/1 3/1/1
f 25/1/1 19/1/1 15/1/1
f 26/1/1 22/1/1 24/1/1
f 26/1/1 24/1/1 25/1/1
f 26/1/1 4/1/1 18/1/1
f 26/1/1 18/1/1 22/1/1
f 27/2/1 26/2/1 25/2/1
f 28/2/1 26/2/1 27/2/1
f 29/2/2 30/2/2 31/2/2
f 31/2/2 30/2/2 32/2/2
f 31/1/2 32/1/2 33/1/2
f 33/1/2 32/1/2 34/1/2
f 31/1/2 33/1/2 35/1/2
f 35/1/2 33/1/2 36/1/2
f 34/1/2 32/1/2 37/1/2
f 37/1/2 32/1/2 38/1/2
f 31/1/2 35/1/2 39/1/2
f 39/1/2 35/1/2 40/1/2
f 38/1/2 32/1/2 41/1/2
f 41/1/2 32/1/2 42/1/2
f 31/1/2 39/1/2 43/1/2
f 42/1/2 32/1/2 46/1/2
f 43/1/2 44/1/2 47/1/2
f 45/1/2 46/1/2 50/1/2
f 47/1/2 48/1/2 51/1/2
f 49/1/2 50/1/2 52/1/2
f 47/1/2 51/1/2 53/1/2
f 51/1/2 52/1/2 53/1/2
f 31/1/2 43/1/2 53/1/2
f 43/1/2 47/1/2 53/1/2
f 52/1/2 50/1/2 54/1/2
f 53/1/2 52/1/2 54/1/2
f 46/1/2 32/1/2 54/1/2
f 50/1/2 46/1/2 54/1/2
f 53/2/2 54/2/2 55/2/2
f 55/2/2 54/2/2 56/2/2
f 61/2/3 58/2/3 57/2/3
f 62/1/3 59/1/3 58/1/3
f 62/2/3 58/2/3 61/2/3
f 63/2/3 60/2/3 59/2/3
f 63/1/3 59/1/3 62/1/3
f 64/2/3 60/2/3 63/2/3
f 69/1/3 66/1/3 65/1/3
f 70/1/3 66/1/3 69/1/3
f 71/1/3 68/1/3 67/1/3
f 72/1/3 68/1/3 71/1/3
f 77/1/3 74/1/3 73/1/3
f 78/1/3 74/1/3 77/1/3
f 79/1/3 76/1/3 75/1/3
f 80/1/3 76/1/3 79/1/3
f 83/1/3 82/1/3 81/1/3
f 84/1/3 82/1/3 83/1/3
f 85/1/4 86/1/4 87/1/4
f 87/1/4 86/1/4 88/1/4
f 89/1/4 90/1/4 93/1/4
f 93/1/4 90/1/4 94/1/4
f 91/1/4 92/1/4 95/1/4
f 95/1/4 92/1/4 96/1/4
f 97/1/4 98/1/4 101/1/4
f 101/1/4 98/1/4 102/1/4
f 99/1/4 100/1/4 103/1/4
f 103/1/4 100/1/4 104/1/4
f 105/2/4 106/2/4 109/2/4
f 106/1/4 107/1/4 110/1/4
f 109/2/4 106/2/4 110/2/4
f 107/2/4 108/2/4 111/2/4
f 110/1/4 107/1/4 111/1/4
f 111/2/4 108/2/4 112/2/4
f 115/2/5 114/2/5 113/2/5
f 116/2/5 114/2/5 115/2/5
f 119/1/5 118/1/5 117/1/5
f 120/1/5 118/1/5 119/1/5
f 123/1/5 122/1/5 121/1/5
f 124/1/5 122/1/5 123/1/5
f 127/1/5 126/1/5 125/1/5
f 128/1/5 126/1/5 127/1/5
f 131/1/5 130/1/5 129/1/5
f 132/1/5 130/1/5 131/1/5
f 135/1/5 134/1/5 133/1/5
f 136/1/5 134/1/5 135/1/5
f 137/1/6 138/1/6 139/1/6
f 139/1/6 138/1/6 140/1/6
f 141/1/6 142/1/6 143/1/6
f 143/1/6 142/1/6 144/1/6
f 145/1/6 146/1/6 147/1/6
f 147/1/6 146/1/6 148/1/6
f 149/1/6 150/1/6 151/1/6
f 151/1/6 150/1/6 152/1/6
f 153/1/6 154/1/6 155/1/6
f 155/1/6 154/1/6 156/1/6
f 157/2/6 158/2/6 159/2/6
f 159/2/6 158/2/6 160/2/6
